; ModuleID = 'probe4.e8ad6ba3b9271ad1-cgu.0'
source_filename = "probe4.e8ad6ba3b9271ad1-cgu.0"
target datalayout = "e-m:o-p270:32:32-p271:32:32-p272:64:64-i64:64-f80:128-n8:16:32:64-S128"
target triple = "x86_64-apple-macosx10.7.0"

; probe4::probe
; Function Attrs: uwtable
define void @_ZN6probe45probe17hc9cd1da1efe7840eE() unnamed_addr #0 {
start:
  %0 = alloca i32, align 4
  store i32 1, ptr %0, align 4
  %_0.i = load i32, ptr %0, align 4, !noundef !2
  ret void
}

; Function Attrs: nocallback nofree nosync nounwind speculatable willreturn memory(none)
declare i32 @llvm.cttz.i32(i32, i1 immarg) #1

attributes #0 = { uwtable "frame-pointer"="all" "probe-stack"="inline-asm" "target-cpu"="core2" }
attributes #1 = { nocallback nofree nosync nounwind speculatable willreturn memory(none) }

!llvm.module.flags = !{!0}
!llvm.ident = !{!1}

!0 = !{i32 8, !"PIC Level", i32 2}
!1 = !{!"rustc version 1.73.0 (cc66ad468 2023-10-03)"}
!2 = !{}
